module github.com/renproject/darknode-cli

go 1.13

require (
	github.com/aws/aws-sdk-go v1.25.19
	github.com/btcsuite/btcd v0.20.1-beta
	github.com/ethereum/go-ethereum v1.9.6
	github.com/fatih/color v1.7.0
	github.com/google/go-github v17.0.0+incompatible
	github.com/google/go-querystring v1.0.0 // indirect
	github.com/hashicorp/go-version v1.2.0
	github.com/jbenet/go-base58 v0.0.0-20150317085156-6237cf65f3a6
	github.com/multiformats/go-multiaddr v0.1.1
	github.com/multiformats/go-multihash v0.0.8
	github.com/renproject/aw v0.3.7
	github.com/renproject/mercury v0.3.6
	github.com/renproject/phi v0.1.0
	github.com/sirupsen/logrus v1.4.2
	github.com/syndtr/goleveldb v1.0.1-0.20190923125748-758128399b1d // indirect
	github.com/urfave/cli v1.22.1
	golang.org/x/crypto v0.0.0-20191112222119-e1110fd1c708
	golang.org/x/oauth2 v0.0.0-20190604053449-0f29369cfe45
	google.golang.org/api v0.13.0
	gopkg.in/urfave/cli.v1 v1.20.0 // indirect
)
